module github.com/icyd/go-grpc-lab

go 1.15

require (
	go.mongodb.org/mongo-driver v1.4.4 // indirect
	google.golang.org/grpc v1.34.0
	google.golang.org/protobuf v1.25.0
	gopkg.in/mgo.v2 v2.0.0-20190816093944-a6b53ec6cb22 // indirect
)
